
----------------OLT全局配置----------------------------------
激活vlan
vlan database
  vlan 39,{vlan}
  
  
上联口添加vlan
interface {up_wuli}
switchport vlan 39,{vlan} tag


igmp enable
igmp mvlan 39
igmp mvlan 39 version-mode v1 accept
igmp mvlan 39 version-mode v2 accept
igmp mvlan 39 version-mode v3 accept

igmp mvlan 39 group 233.249.3.145
igmp mvlan 39 group 233.146.23.8  
igmp mvlan 39 group 233.147.23.252
igmp mvlan 39 group 233.147.23.253
igmp mvlan 39 group 233.219.204.60
igmp mvlan 39 group 233.219.204.61
igmp mvlan 39 group 233.219.204.62
igmp mvlan 39 group 233.219.204.63
igmp mvlan 39 group 233.219.204.70
igmp mvlan 39 group 233.219.204.80
igmp mvlan 39 group 233.219.204.81
igmp mvlan 39 group 233.219.204.82
igmp mvlan 39 group 233.219.204.83
igmp mvlan 39 group 233.219.204.84
igmp mvlan 39 group 233.219.204.85
igmp mvlan 39 group 233.219.204.86
igmp mvlan 39 group 233.219.204.88
igmp mvlan 39 group 233.220.204.20
igmp mvlan 39 group 233.223.204.43
igmp mvlan 39 group 233.249.12.39 
igmp mvlan 39 group 233.249.12.40 
igmp mvlan 39 group 233.249.12.41 
igmp mvlan 39 group 233.249.12.42 
igmp mvlan 39 group 233.249.19.26 
igmp mvlan 39 group 233.249.3.122 
igmp mvlan 39 group 233.249.3.123 
igmp mvlan 39 group 233.249.3.124 
igmp mvlan 39 group 233.249.3.125 
igmp mvlan 39 group 233.249.3.126 
igmp mvlan 39 group 233.249.3.127 
igmp mvlan 39 group 233.249.3.128 
igmp mvlan 39 group 233.249.3.129 
igmp mvlan 39 group 233.249.3.130 
igmp mvlan 39 group 233.249.3.144  

igmp mvlan 39 group 233.249.3.146 
igmp mvlan 39 group 233.249.3.147 
igmp mvlan 39 group 233.249.3.15  
igmp mvlan 39 group 233.249.3.160 
igmp mvlan 39 group 233.249.3.161 
igmp mvlan 39 group 233.249.3.162 
igmp mvlan 39 group 233.249.3.163 
igmp mvlan 39 group 233.249.3.177 
igmp mvlan 39 group 233.249.3.178 
igmp mvlan 39 group 233.249.3.180 
igmp mvlan 39 group 233.249.3.181 
igmp mvlan 39 group 233.249.3.182 
igmp mvlan 39 group 233.249.3.183 
igmp mvlan 39 group 233.249.3.184 
igmp mvlan 39 group 233.249.3.185 
igmp mvlan 39 group 233.249.3.19  
igmp mvlan 39 group 233.249.3.194 
igmp mvlan 39 group 233.249.3.199 
igmp mvlan 39 group 233.249.3.200 
igmp mvlan 39 group 233.249.3.201 
igmp mvlan 39 group 233.249.3.202 
igmp mvlan 39 group 233.249.3.203 
igmp mvlan 39 group 233.249.3.204 
igmp mvlan 39 group 233.249.3.205 
igmp mvlan 39 group 233.249.3.208 
igmp mvlan 39 group 233.249.3.209 
igmp mvlan 39 group 233.249.3.21  
igmp mvlan 39 group 233.249.3.210 
igmp mvlan 39 group 233.249.3.211 
igmp mvlan 39 group 233.249.3.212 
igmp mvlan 39 group 233.249.3.213 
igmp mvlan 39 group 233.249.3.214 
igmp mvlan 39 group 233.249.3.22  
igmp mvlan 39 group 233.249.3.222 
igmp mvlan 39 group 233.249.3.223 
igmp mvlan 39 group 233.249.3.230 
igmp mvlan 39 group 233.249.3.231 
igmp mvlan 39 group 233.249.3.239 
igmp mvlan 39 group 233.249.3.24  
igmp mvlan 39 group 233.249.3.240 
igmp mvlan 39 group 233.249.3.241 
igmp mvlan 39 group 233.249.3.242 
igmp mvlan 39 group 233.249.3.243 
igmp mvlan 39 group 233.249.3.245 
igmp mvlan 39 group 233.249.3.246 
igmp mvlan 39 group 233.249.3.247 
igmp mvlan 39 group 233.249.3.248 
igmp mvlan 39 group 233.249.3.249 
igmp mvlan 39 group 233.249.3.25  
igmp mvlan 39 group 233.249.3.250 
igmp mvlan 39 group 233.249.3.251 
igmp mvlan 39 group 233.249.3.252 
igmp mvlan 39 group 233.249.3.253 
igmp mvlan 39 group 233.249.3.254 
igmp mvlan 39 group 233.249.3.27  
igmp mvlan 39 group 233.249.3.43  
igmp mvlan 39 group 233.249.3.44  
igmp mvlan 39 group 233.249.3.45  
igmp mvlan 39 group 233.249.3.46  
igmp mvlan 39 group 233.249.3.47  
igmp mvlan 39 group 233.249.3.49  
igmp mvlan 39 group 233.249.3.50  
igmp mvlan 39 group 233.249.3.52  
igmp mvlan 39 group 233.249.3.53  
igmp mvlan 39 group 233.249.3.55  
igmp mvlan 39 group 233.249.3.56  
igmp mvlan 39 group 233.249.3.57  
igmp mvlan 39 group 233.249.3.58  
igmp mvlan 39 group 233.249.3.59  
igmp mvlan 39 group 233.249.3.60  
igmp mvlan 39 group 233.249.3.61  
igmp mvlan 39 group 233.249.3.68  
igmp mvlan 39 group 233.249.3.90  
igmp mvlan 39 group 233.249.3.91  
igmp mvlan 39 group 233.249.3.92  
igmp mvlan 39 group 233.249.3.94  
igmp mvlan 39 group 233.249.5.20  
igmp mvlan 39 group 233.249.5.24  
igmp mvlan 39 group 233.249.5.25  
igmp mvlan 39 group 233.249.5.26  
igmp mvlan 39 group 233.249.5.27  
igmp mvlan 39 group 233.249.5.28  
igmp mvlan 39 group 233.249.5.29  
igmp mvlan 39 group 233.249.5.30  
igmp mvlan 39 group 233.249.5.34  
igmp mvlan 39 group 233.249.5.35  
igmp mvlan 39 group 233.249.5.36  
igmp mvlan 39 group 233.249.5.58  
igmp mvlan 39 group 233.249.5.60  
igmp mvlan 39 group 233.249.5.63  
igmp mvlan 39 group 233.249.5.64  
igmp mvlan 39 group 233.249.5.65  
igmp mvlan 39 group 233.249.5.66  
igmp mvlan 39 group 233.249.5.67  
igmp mvlan 39 group 233.249.5.75  
igmp mvlan 39 group 233.249.5.78  
igmp mvlan 39 group 233.249.5.85  
igmp mvlan 39 group 233.249.5.96  
igmp mvlan 39 group 233.249.5.97  
igmp mvlan 39 group 233.249.8.16  
igmp mvlan 39 group 233.249.8.164 
igmp mvlan 39 group 233.249.8.239 
igmp mvlan 39 group 233.249.8.240 
igmp mvlan 39 group 233.249.8.241 
igmp mvlan 39 group 233.249.8.242 
igmp mvlan 39 group 233.249.8.243 
igmp mvlan 39 group 233.249.8.247 
igmp mvlan 39 group 233.249.8.248 
igmp mvlan 39 group 233.249.8.250 
igmp mvlan 39 group 233.249.8.251 
igmp mvlan 39 group 233.249.8.254 
igmp mvlan 39 group 233.249.8.59  
igmp mvlan 39 group 233.249.8.62  
igmp mvlan 39 group 233.249.8.63  
igmp mvlan 39 group 233.249.8.64  
igmp mvlan 39 group 233.249.8.65  
igmp mvlan 39 group 233.249.8.66  
igmp mvlan 39 group 233.249.8.67  
igmp mvlan 39 group 233.249.8.90  
igmp mvlan 39 group 233.249.8.91  
igmp mvlan 39 group 233.249.8.92  
igmp mvlan 39 group 233.249.9.148 
igmp mvlan 39 group 233.250.1.146 
igmp mvlan 39 group 233.250.1.68  
igmp mvlan 39 group 233.250.2.253 
igmp mvlan 39 group 239.21.1.1    
igmp mvlan 39 group 239.21.1.102  
igmp mvlan 39 group 239.21.1.150  
igmp mvlan 39 group 239.21.1.151  
igmp mvlan 39 group 239.21.1.153  
igmp mvlan 39 group 239.21.1.2    
igmp mvlan 39 group 239.21.1.209  
igmp mvlan 39 group 239.21.1.3    
igmp mvlan 39 group 239.21.1.4    
igmp mvlan 39 group 239.21.1.5
igmp mvlan 39 source-port {up_wuli}
igmp mvlan 39 work-mode  proxy 




ONU配置先不部署：
==============================================================
新配置                
interface gpon-onu_1/6/2:11
name nbfha88090763_1
disable-first-online-alarm
sn-bind disable
tcont 1 name Tl1DefaultCreate profile 100M-UP
gemport 1 name Tl1OpVlan4034 tcont 1
gemport 2 name Tl1OpVlan4031 tcont 1
gemport 3 name Tl1OpVlan4033 tcont 1
service-port 1 vport 1 user-vlan 4034 vlan 376
service-port 1 description Tl1OpVlan4034
service-port 3 vport 3 user-vlan 4033 vlan 39
service-port 2 vport 2 user-vlan 4031 vlan 26 svlan 1249
service-port 2 description Tl1OpVlan4031
service-port 1 vport 1 user-vlan 39 vlan 39


pon-onu-mng gpon-onu_1/6/2:11
service Tl1OpVlan4034 gemport 1 vlan 4034
service Tl1OpVlan4031 gemport 2 vlan 4031
service Tl1OpVlan4031 gemport 3 vlan 4033
mvlan 39
switchport-bind switch_0/1 veip 1
vlan-filter-mode veip 1 tag-filter vid-filter untag-filter transparent
vlan-filter veip 1 pri 0 vid 4033
vlan-filter veip 1 pri 0 vid 4034
vlan-filter veip 1 pri 0 vid 4031
vlan-filter veip 1 pri 0 vid 39


pon-onu-mng gpon-onu_1/6/2:12
  service Tl1DefaultCreate gemport 1
  switchport-bind switch_0/1 veip 1
  mvlan 80
  vlan-filter-mode veip 1 tag-filter vlan-filter untag-filter transparent
  vlan-filter veip 1 pri 0 vlan 80
  vlan-filter veip 1 pri 0 vlan 4000
  
  igmp mvlan 4000 receive-port gpon-onu_1/6/1:1 vport 1